{
    "$id": "http://schemas.infopack.io/infopack-meta.1.schema.json",
    "$schema": "http://json-schema.org/draft-07/schema#",
    "title": "Meta file definition within the infopack eco system",
    "description": "Meta files in infopack output package should be validated against this schema. It also serves a purpose for developers that need to implement infopack data.",
    "type": "object",
    "properties": {
        "title": {
            "title": "Title",
            "description": "A descriptive title of the file",
            "type": "string",
            "minLength": 1,
            "maxLength": 140
        },
        "description": {
            "title": "Description",
            "description": "A file description",
            "type": "string",
            "minLength": 1,
            "maxLength": 1024
        },
        "path": {
            "title": "Relative path",
            "description": "Relative path within the infopack output folder",
            "type": "string",
            "minLength": 1
        },
        "filename": {
            "title": "File name",
            "description": "The raw name of the file.",
            "type": "string",
            "minLength": 1
        },
        "meta": {
            "type": "object",
            "properties": {
                "name": {
                    "title": "Name",
                    "description": "A human readable name of the infopack",
                    "type": "string",
                    "minLength": 1,
                    "maxLength": 140
                },
                "description": {
                    "title": "Description",
                    "description": "A brief description of the infopack",
                    "type": "string",
                    "minLength": 1,
                    "maxLength": 1024
                },
                "version": {
                    "title": "Version",
                    "description": "The infopack version",
                    "type": "string"
                },
                "packagedAt": {
                    "title": "Packaged at",
                    "description": "Timestamp when the infopack pipeline ran",
                    "type": "string"
                }
            },
            "required": ["name", "description", "version", "packagedAt"],
            "additionalProperties": false
        },
        "labels": {
            "type": "object",
            "additionalProperties": {
                "type": "string"
            }
        },
        "$schema": {
            "type": "string",
            "format": "uri"
        }
    },
    "required": ["title", "description", "path", "filename", "meta"],
    "additionalProperties": false
}
